{"data":[{"relationships":{"node":{"data":{"type":"registrations","id":"8jpzs"},"links":{"related":{"href":"https://api.test.osf.io/v2/registrations/8jpzs/?format=json","meta":{}}}},"original_node":{"data":{"type":"nodes","id":"jxwpb"},"links":{"related":{"href":"https://api.test.osf.io/v2/nodes/jxwpb/?format=json","meta":{}}}},"user":{"data":{"type":"users","id":"4ytz7"},"links":{"related":{"href":"https://api.test.osf.io/v2/users/4ytz7/?format=json","meta":{}}}}},"links":{"self":"https://api.test.osf.io/v2/logs/5dc17b1e150be300092f4f25/"},"attributes":{"date":"2019-11-01T15:46:20.185676","action":"project_registered","params":{"preprint_provider":null,"params_node":{"id":"jxwpb","title":"Corbin's test project"},"pointer":null,"params_project":null,"contributors":[]}},"type":"logs","id":"5dc17b1e150be300092f4f25"},{"relationships":{"node":{"data":{"type":"registrations","id":"8jpzs"},"links":{"related":{"href":"https://api.test.osf.io/v2/registrations/8jpzs/?format=json","meta":{}}}},"original_node":{"data":{"type":"nodes","id":"jxwpb"},"links":{"related":{"href":"https://api.test.osf.io/v2/nodes/jxwpb/?format=json","meta":{}}}},"user":{"data":{"type":"users","id":"4ytz7"},"links":{"related":{"href":"https://api.test.osf.io/v2/users/4ytz7/?format=json","meta":{}}}}},"links":{"self":"https://api.test.osf.io/v2/logs/5dc17b1e150be300092f4f24/"},"attributes":{"date":"2019-11-01T15:46:20.052108","action":"registration_approved","params":{"preprint_provider":null,"params_node":{"id":"jxwpb","title":"Corbin's test project"},"pointer":null,"params_project":null,"contributors":[]}},"type":"logs","id":"5dc17b1e150be300092f4f24"},{"relationships":{"node":{"data":{"type":"registrations","id":"8jpzs"},"links":{"related":{"href":"https://api.test.osf.io/v2/registrations/8jpzs/?format=json","meta":{}}}},"original_node":{"data":{"type":"nodes","id":"jxwpb"},"links":{"related":{"href":"https://api.test.osf.io/v2/nodes/jxwpb/?format=json","meta":{}}}},"user":{"data":{"type":"users","id":"4ytz7"},"links":{"related":{"href":"https://api.test.osf.io/v2/users/4ytz7/?format=json","meta":{}}}}},"links":{"self":"https://api.test.osf.io/v2/logs/5dc17b1e150be300092f4f23/"},"attributes":{"date":"2019-11-01T15:45:11.330865","action":"registration_initiated","params":{"preprint_provider":null,"params_node":{"id":"jxwpb","title":"Corbin's test project"},"pointer":null,"params_project":null,"contributors":[]}},"type":"logs","id":"5dc17b1e150be300092f4f23"}],"links":{"first":null,"last":"https://api.test.osf.io/v2/registrations/8jpzs/logs/?format=json&page=2&page%5Bsize%5D=3","prev":null,"next":"https://api.test.osf.io/v2/registrations/8jpzs/logs/?format=json&page=2&page%5Bsize%5D=3","meta":{"total":6,"per_page":3}}}